<?xml version="1.0" encoding="iso-8859-1"?>
<!-- Generator: Adobe Illustrator 19.0.0, SVG Export Plug-In . SVG Version: 6.00 Build 0)  -->
<svg version="1.1" id="Capa_1" xmlns="http://www.w3.org/2000/svg" xmlns:xlink="http://www.w3.org/1999/xlink" x="0px" y="0px"
	 viewBox="0 0 387.401 387.401" style="enable-background:new 0 0 387.401 387.401;" xml:space="preserve">
<g>
	<g>
		<g>
			<path d="M317.993,97.458c8.04-8.417,7.735-21.758-0.68-29.8c-69.105-66.313-178.215-66.313-247.32,0
				c-8.415,8.042-8.72,21.383-0.68,29.8c8.042,8.415,21.383,8.72,29.8,0.68c6.275-5.971,13.106-11.328,20.4-16
				c7.335-4.727,15.103-8.745,23.2-12c8.054-3.229,16.399-5.681,24.92-7.32c17.177-3.287,34.823-3.287,52,0
				c8.535,1.637,16.893,4.088,24.96,7.32c8.097,3.255,15.865,7.273,23.2,12c7.294,4.672,14.125,10.029,20.4,16
				C296.611,106.178,309.951,105.873,317.993,97.458z"/>
			<path d="M387.132,284.326c-1.93-21.1-14.234-39.855-32.819-50.028l-0.12,0.12c1.2-5.12,2.147-10.36,2.84-15.72
				c3.62-26.912,0.514-54.302-9.04-79.72c-4.935-13.219-11.549-25.748-19.68-37.28c-0.789,1.066-1.644,2.081-2.56,3.04l-0.64,0.6
				c-2.188,2.248-4.695,4.162-7.44,5.68c7.102,10.215,12.906,21.273,17.28,32.92c8.661,23.269,11.49,48.305,8.24,72.92
				c-0.533,4.027-1.24,8.027-2.12,12c-3.766-1.062-7.623-1.771-11.52-2.12c-4.144-12.194-17.389-18.721-29.583-14.577
				c-9.463,3.216-15.824,12.103-15.817,22.097v111.72c-0.043,12.857,10.345,23.315,23.202,23.357
				c6.23,0.021,12.208-2.456,16.598-6.877c2.525-2.521,4.441-5.585,5.6-8.96C364.554,350.297,390.334,319.328,387.132,284.326z
				 M316.553,346.098c-0.009,2.436-0.988,4.768-2.72,6.48c-3.607,3.579-9.432,3.556-13.011-0.051
				c-1.707-1.721-2.667-4.045-2.669-6.469v-111.68c0.004-5.081,4.126-9.197,9.207-9.193c5.075,0.004,9.188,4.117,9.193,9.193
				V346.098z"/>
			<path d="M79.97,211.081c-9.979,0.01-18.846,6.368-22.057,15.817c-3.897,0.349-7.754,1.058-11.52,2.12
				c-0.88-4.053-1.6-8.053-2.16-12c-3.25-24.615-0.421-49.651,8.24-72.92c4.337-11.698,10.115-22.811,17.2-33.08
				c-2.78-1.472-5.327-3.345-7.56-5.56l-0.44-0.6c-0.916-0.959-1.771-1.974-2.56-3.04c-8.136,11.492-14.763,23.981-19.72,37.16
				c-9.546,25.406-12.652,52.781-9.04,79.68c0.72,5.333,1.68,10.587,2.88,15.76c-30.872,16.8-42.28,55.446-25.48,86.318
				c10.164,18.677,28.984,31.044,50.16,32.962c1.159,3.375,3.075,6.439,5.6,8.96c9.112,9.102,23.878,9.093,32.979-0.019
				c4.363-4.368,6.815-10.287,6.821-16.461v-111.8C103.3,221.499,92.849,211.068,79.97,211.081z M89.193,346.178
				c-0.134,5.079-4.36,9.088-9.439,8.954c-2.268-0.06-4.433-0.955-6.081-2.514c-1.732-1.712-2.711-4.044-2.72-6.48l-0.16-111.68
				c0.004-5.081,4.126-9.197,9.207-9.193c5.075,0.004,9.188,4.117,9.193,9.193V346.178z"/>
		</g>
	</g>
</g>
<g>
</g>
<g>
</g>
<g>
</g>
<g>
</g>
<g>
</g>
<g>
</g>
<g>
</g>
<g>
</g>
<g>
</g>
<g>
</g>
<g>
</g>
<g>
</g>
<g>
</g>
<g>
</g>
<g>
</g>
</svg>
