<?xml version="1.0" encoding="UTF-8" standalone="no"?>
<!-- Created with Inkscape (http://www.inkscape.org/) -->

<svg
   xmlns:dc="http://purl.org/dc/elements/1.1/"
   xmlns:cc="http://creativecommons.org/ns#"
   xmlns:rdf="http://www.w3.org/1999/02/22-rdf-syntax-ns#"
   xmlns:svg="http://www.w3.org/2000/svg"
   xmlns="http://www.w3.org/2000/svg"
   xmlns:sodipodi="http://sodipodi.sourceforge.net/DTD/sodipodi-0.dtd"
   xmlns:inkscape="http://www.inkscape.org/namespaces/inkscape"
   version="1.1"
   id="svg2"
   xml:space="preserve"
   width="959.22095"
   height="758.29694"
   viewBox="0 0 959.22097 758.29694"
   sodipodi:docname="marketshare.svg"
   inkscape:version="0.92.2 (5c3e80d, 2017-08-06)"><metadata
     id="metadata8"><rdf:RDF><cc:Work
         rdf:about=""><dc:format>image/svg+xml</dc:format><dc:type
           rdf:resource="http://purl.org/dc/dcmitype/StillImage" /><dc:title /></cc:Work></rdf:RDF></metadata><defs
     id="defs6" /><sodipodi:namedview
     pagecolor="#ffffff"
     bordercolor="#666666"
     borderopacity="1"
     objecttolerance="10"
     gridtolerance="10"
     guidetolerance="10"
     inkscape:pageopacity="0"
     inkscape:pageshadow="2"
     inkscape:window-width="1920"
     inkscape:window-height="1001"
     id="namedview4"
     showgrid="false"
     fit-margin-top="10"
     fit-margin-left="10"
     fit-margin-right="10"
     fit-margin-bottom="10"
     inkscape:zoom="0.92538191"
     inkscape:cx="372.81933"
     inkscape:cy="333.41252"
     inkscape:window-x="0"
     inkscape:window-y="27"
     inkscape:window-maximized="1"
     inkscape:current-layer="g10" /><g
     id="g10"
     inkscape:groupmode="layer"
     inkscape:label="ink_ext_XXXXXX"
     transform="matrix(1.3333333,0,0,-1.3333333,-210.82165,723.61249)"><path
       inkscape:connector-curvature="0"
       id="path16"
       style="fill:#477340;fill-opacity:1;fill-rule:evenodd;stroke:#000000;stroke-width:2.25;stroke-miterlimit:4;stroke-dasharray:none;stroke-opacity:1"
       d="m 509.94719,534.08438 c -27.226,0 -54.281,-4.281 -80.174,-12.701 -25.894,-8.42 -50.286,-20.866 -72.327,-36.855 -22.012,-16.018 -41.39,-35.409 -57.396,-57.437 -15.979,-22.057 -28.415,-46.466 -36.829,-72.378 -8.414,-25.912 -12.692,-52.986 -12.692,-80.202 0,-27.216 4.278,-54.29 12.692,-80.202 8.414,-25.912 20.85,-50.321 36.829,-72.378 16.006,-22.027799 35.384,-41.419199 57.396,-57.436799 22.041,-15.9895 46.433,-28.4352 72.327,-36.8551 14.278,-4.6492 28.925,-8.0512 43.798,-10.1492 l 12.125,85.673799 c -9.915,1.4173 -19.689,3.6573 -29.208,6.7753 -17.253,5.613 -33.515,13.892 -48.218,24.58 -14.675,10.659 -27.593,23.587 -38.245,38.272 -10.681,14.714 -18.953,30.987 -24.562,48.252 -5.61,17.265 -8.471,35.324 -8.471,53.439 0,18.173 2.861,36.232 8.471,53.497 5.609,17.265 13.881,33.538 24.562,48.252 10.652,14.685 23.57,27.613 38.245,38.272 14.703,10.688 30.965,18.967 48.218,24.58 17.253,5.613 35.299,8.476 53.459,8.476 v 86.525" /><path
       inkscape:connector-curvature="0"
       id="path18"
       style="fill:#477340;fill-opacity:1;fill-rule:evenodd;stroke:#000000;stroke-width:2.25;stroke-miterlimit:4;stroke-dasharray:none;stroke-opacity:1"
       d="m 473.57119,17.490281 c 12.04,-1.7012 24.194,-2.5797 36.376,-2.5797 26.262,0 52.353,3.9973 77.426,11.85 l -25.838,82.583799 c -16.714,-5.217 -34.08,-7.8815 -51.588,-7.8815 -8.131,0 -16.233,0.5672 -24.251,1.7012 l -12.125,-85.673799" /><path
       inkscape:connector-curvature="0"
       id="path20"
       style="fill:#477340;fill-opacity:1;fill-rule:evenodd;stroke:#000000;stroke-width:2.25;stroke-miterlimit:4;stroke-dasharray:none;stroke-opacity:1"
       d="m 587.37319,26.760581 c 25.327,7.9383 49.294,19.7035 71.051,34.9273 l -49.521,70.931499 c -14.505,-10.121 -30.483,-17.974 -47.368,-23.275 l 25.838,-82.583799" /><path
       inkscape:connector-curvature="0"
       id="path22"
       style="fill:#477340;fill-opacity:1;fill-rule:evenodd;stroke:#000000;stroke-width:2.25;stroke-miterlimit:4;stroke-dasharray:none;stroke-opacity:1"
       d="m 658.42419,61.687881 c 18.641,13.0125 35.498,28.4352 50.116,45.870499 l -66.207,55.651 c -9.746,-11.624 -20.993,-21.886 -33.43,-30.59 l 49.521,-70.931499" /><path
       inkscape:connector-curvature="0"
       id="path24"
       style="fill:#e1431a;fill-opacity:1;fill-rule:evenodd;stroke:#000000;stroke-width:2.25;stroke-miterlimit:4;stroke-dasharray:none;stroke-opacity:1"
       d="m 708.54019,107.55838 c 13.938,16.585 25.724,34.87 35.129,54.375 l -77.936,37.535 c -6.261,-13.012 -14.108,-25.203 -23.4,-36.259 l 66.207,-55.651" /><path
       inkscape:connector-curvature="0"
       id="path26"
       style="fill:#477340;fill-opacity:1;fill-rule:evenodd;stroke:#000000;stroke-width:2.25;stroke-miterlimit:4;stroke-dasharray:none;stroke-opacity:1"
       d="m 743.66919,161.93338 c 8.216,17.095 14.533,35.012 18.84,53.468 l -84.197,19.703 c -2.89,-12.304 -7.083,-24.239 -12.579,-35.636 l 77.936,-37.535" /><path
       inkscape:connector-curvature="0"
       id="path28"
       style="fill:#477340;fill-opacity:1;fill-rule:evenodd;stroke:#000000;stroke-width:2.25;stroke-miterlimit:4;stroke-dasharray:none;stroke-opacity:1"
       d="m 762.50919,215.40138 c 4.192,17.917 6.459,36.26 6.771,54.659 l -86.464,1.503 c -0.198,-12.276 -1.728,-24.495 -4.504,-36.459 l 84.197,-19.703" /><path
       inkscape:connector-curvature="0"
       id="path30"
       style="fill:#477340;fill-opacity:1;fill-rule:evenodd;stroke:#000000;stroke-width:2.25;stroke-miterlimit:4;stroke-dasharray:none;stroke-opacity:1"
       d="m 769.28019,270.06038 c 0.198,11.879 -0.397,23.786 -1.842,35.608 l -85.84,-10.405 c 0.963,-7.881 1.36,-15.791 1.218,-23.7 l 86.464,-1.503" /><path
       inkscape:connector-curvature="0"
       id="path32"
       style="fill:#477340;fill-opacity:1;fill-rule:evenodd;stroke:#000000;stroke-width:2.25;stroke-miterlimit:4;stroke-dasharray:none;stroke-opacity:1"
       d="m 767.43819,305.66838 c -1.417,11.822 -3.654,23.53 -6.686,35.04 l -83.63,-22.085 c 2.04,-7.654 3.513,-15.478 4.476,-23.36 l 85.84,10.405" /><path
       inkscape:connector-curvature="0"
       id="path34"
       style="fill:#477340;fill-opacity:1;fill-rule:evenodd;stroke:#000000;stroke-width:2.25;stroke-miterlimit:4;stroke-dasharray:none;stroke-opacity:1"
       d="m 760.75219,340.70838 c -2.068,7.853 -4.504,15.593 -7.309,23.219 l -81.165,-29.824 c 1.841,-5.075 3.484,-10.235 4.844,-15.48 l 83.63,22.085" /><path
       inkscape:connector-curvature="0"
       id="path36"
       style="fill:#477340;fill-opacity:1;fill-rule:evenodd;stroke:#000000;stroke-width:2.25;stroke-miterlimit:4;stroke-dasharray:none;stroke-opacity:1"
       d="m 753.44319,363.92738 c -2.606,7.116 -5.524,14.09 -8.754,20.95 l -78.247,-36.798 c 2.152,-4.564 4.079,-9.214 5.836,-13.976 l 81.165,29.824" /><path
       inkscape:connector-curvature="0"
       id="path38"
       style="fill:#477340;fill-opacity:1;fill-rule:evenodd;stroke:#000000;stroke-width:2.25;stroke-miterlimit:4;stroke-dasharray:none;stroke-opacity:1"
       d="m 744.68919,384.87738 c -2.295,4.905 -4.731,9.725 -7.338,14.459 l -75.81,-41.618 c 1.728,-3.146 3.371,-6.378 4.901,-9.639 l 78.247,36.798" /><path
       inkscape:connector-curvature="0"
       id="path40"
       style="fill:#477340;fill-opacity:1;fill-rule:evenodd;stroke:#000000;stroke-width:2.25;stroke-miterlimit:4;stroke-dasharray:none;stroke-opacity:1"
       d="m 737.35119,399.33638 c -2.606,4.763 -5.354,9.412 -8.244,13.977 l -73.063,-46.268 c 1.927,-3.033 3.768,-6.152 5.497,-9.327 l 75.81,41.618" /><path
       inkscape:connector-curvature="0"
       id="path42"
       style="fill:#477340;fill-opacity:1;fill-rule:evenodd;stroke:#000000;stroke-width:2.25;stroke-miterlimit:4;stroke-dasharray:none;stroke-opacity:1"
       d="m 729.10719,413.31338 c -2.889,4.592 -5.92,9.071 -9.093,13.437 l -70.032,-50.746 c 2.125,-2.92 4.136,-5.897 6.062,-8.959 l 73.063,46.268" /><path
       inkscape:connector-curvature="0"
       id="path44"
       style="fill:#477340;fill-opacity:1;fill-rule:evenodd;stroke:#000000;stroke-width:2.25;stroke-miterlimit:4;stroke-dasharray:none;stroke-opacity:1"
       d="m 720.01419,426.75038 c -1.898,2.637 -3.853,5.217 -5.865,7.797 l -68.077,-53.355 c 1.332,-1.701 2.635,-3.43 3.91,-5.188 l 70.032,50.746" /><path
       inkscape:connector-curvature="0"
       id="path46"
       style="fill:#477340;fill-opacity:1;fill-rule:evenodd;stroke:#000000;stroke-width:2.25;stroke-miterlimit:4;stroke-dasharray:none;stroke-opacity:1"
       d="m 714.14919,434.54738 c -1.983,2.551 -4.023,5.075 -6.119,7.541 l -66.037,-55.85 c 1.388,-1.672 2.748,-3.345 4.079,-5.046 l 68.077,53.355" /><path
       inkscape:connector-curvature="0"
       id="path48"
       style="fill:#477340;fill-opacity:1;fill-rule:evenodd;stroke:#000000;stroke-width:2.25;stroke-miterlimit:4;stroke-dasharray:none;stroke-opacity:1"
       d="m 708.03019,442.08838 c -1.757,2.069 -3.541,4.11 -5.354,6.123 l -64.253,-57.919 c 1.218,-1.332 2.408,-2.693 3.57,-4.054 l 66.037,55.85" /><path
       inkscape:connector-curvature="0"
       id="path50"
       style="fill:#477340;fill-opacity:1;fill-rule:evenodd;stroke:#000000;stroke-width:2.25;stroke-miterlimit:4;stroke-dasharray:none;stroke-opacity:1"
       d="m 702.67619,448.21138 c -1.785,2.013 -3.626,3.998 -5.496,5.926 l -62.44,-59.876 c 1.247,-1.304 2.493,-2.608 3.683,-3.969 l 64.253,57.919" /><path
       inkscape:connector-curvature="0"
       id="path52"
       style="fill:#477340;fill-opacity:1;fill-rule:evenodd;stroke:#000000;stroke-width:2.25;stroke-miterlimit:4;stroke-dasharray:none;stroke-opacity:1"
       d="m 697.18019,454.13738 c -1.502,1.587 -3.032,3.118 -4.562,4.649 l -60.909,-61.434 c 1.02,-1.021 2.04,-2.042 3.031,-3.091 l 62.44,59.876" /><path
       inkscape:connector-curvature="0"
       id="path54"
       style="fill:#477340;fill-opacity:1;fill-rule:evenodd;stroke:#000000;stroke-width:2.25;stroke-miterlimit:4;stroke-dasharray:none;stroke-opacity:1"
       d="m 692.61819,458.78638 c -1.529,1.503 -3.088,3.034 -4.646,4.508 l -59.351,-62.937 c 1.048,-0.992 2.068,-1.985 3.088,-3.005 l 60.909,61.434" /><path
       inkscape:connector-curvature="0"
       id="path56"
       style="fill:#e5c840;fill-opacity:1;fill-rule:evenodd;stroke:#000000;stroke-width:2.25;stroke-miterlimit:4;stroke-dasharray:none;stroke-opacity:1"
       d="m 687.97219,463.29438 c -8.074,7.626 -16.63,14.713 -25.581,21.234 -22.041,15.989 -46.434,28.435 -72.327,36.855 -25.894,8.42 -52.921,12.701 -80.117,12.701 v -86.525 c 18.131,0 36.149,-2.863 53.402,-8.476 17.252,-5.613 33.514,-13.892 48.217,-24.58 5.978,-4.337 11.672,-9.072 17.055,-14.146 l 59.351,62.937" /><path
       inkscape:connector-curvature="0"
       id="path58"
       style="fill:#014686;fill-opacity:1;fill-rule:evenodd;stroke:#000000;stroke-width:2.25;stroke-miterlimit:4;stroke-dasharray:none;stroke-opacity:1"
       d="m 509.94719,447.55938 c -18.16,0 -36.206,-2.863 -53.459,-8.476 -17.253,-5.613 -33.515,-13.892 -48.218,-24.58 -14.675,-10.659 -27.593,-23.587 -38.245,-38.272 -10.681,-14.714 -18.953,-30.987 -24.562,-48.252 -5.61,-17.265 -8.471,-35.324 -8.471,-53.497 0,-18.115 2.861,-36.174 8.471,-53.439 5.609,-17.265 13.881,-33.538 24.562,-48.252 10.652,-14.685 23.57,-27.613 38.245,-38.272 14.703,-10.688 30.965,-18.967 48.218,-24.58 17.253,-5.613 35.299,-8.4765 53.43,-8.4765 18.16,0 36.178,2.8635 53.431,8.4765 17.252,5.613 33.514,13.892 48.217,24.58 14.675,10.659 27.594,23.587 38.246,38.272 10.68,14.714 18.953,30.987 24.562,48.252 5.609,17.265 8.47,35.324 8.47,53.439 0,18.173 -2.861,36.232 -8.47,53.497 -5.609,17.265 -13.882,33.538 -24.562,48.252 -6.12,8.42 -13.003,16.301 -20.539,23.502 l -59.692,-62.625 c 3.768,-3.601 7.224,-7.541 10.284,-11.737 5.326,-7.371 9.462,-15.508 12.267,-24.126 2.805,-8.647 4.25,-17.662 4.25,-26.763 0,-9.043 -1.445,-18.059 -4.25,-26.705 -2.805,-8.618 -6.941,-16.755 -12.267,-24.126 -5.326,-7.343 -11.785,-13.806 -19.123,-19.136 -7.366,-5.33 -15.496,-9.469 -24.08,-12.276 -8.641,-2.807 -17.65,-4.252 -26.715,-4.252 -9.094,0 -18.103,1.445 -26.744,4.252 -8.612,2.807 -16.743,6.946 -24.109,12.276 -7.337,5.33 -13.796,11.793 -19.123,19.136 -5.325,7.371 -9.462,15.508 -12.266,24.126 -2.805,8.646 -4.25,17.662 -4.25,26.705 0,9.101 1.445,18.116 4.25,26.763 2.804,8.618 6.941,16.755 12.266,24.126 5.327,7.342 11.786,13.806 19.123,19.136 7.366,5.33 15.497,9.469 24.109,12.275 8.641,2.808 17.65,4.253 26.744,4.253 v 86.524" /><path
       inkscape:connector-curvature="0"
       id="path60"
       style="fill:#e5c840;fill-opacity:1;fill-rule:evenodd;stroke:#000000;stroke-width:2.25;stroke-miterlimit:4;stroke-dasharray:none;stroke-opacity:1"
       d="m 629.27319,399.73338 c -5.581,5.301 -11.474,10.263 -17.707,14.77 -14.703,10.688 -30.965,18.967 -48.217,24.58 -17.253,5.613 -35.271,8.476 -53.402,8.476 v -86.524 c 9.065,0 18.074,-1.445 26.715,-4.253 8.584,-2.806 16.714,-6.945 24.08,-12.275 3.117,-2.268 6.063,-4.734 8.839,-7.399 l 59.692,62.625" /><g
       id="g1403"><text
         transform="scale(1,-1)"
         id="text1149"
         y="-100.49906"
         x="171.0105"
         style="font-style:normal;font-weight:normal;font-size:30px;line-height:1.25;font-family:sans-serif;letter-spacing:0px;word-spacing:0px;fill:#000000;fill-opacity:1;stroke:none;stroke-width:0.75"
         xml:space="preserve"><tspan
           style="font-size:25px;stroke-width:0.75"
           y="-100.49906"
           x="171.0105"
           id="tspan1147"
           sodipodi:role="line">Samsung</tspan></text>
<text
         transform="scale(1,-1)"
         id="text1153"
         y="17.019993"
         x="489.52765"
         style="font-style:normal;font-weight:normal;font-size:30px;line-height:1.25;font-family:sans-serif;letter-spacing:0px;word-spacing:0px;fill:#000000;fill-opacity:1;stroke:none;stroke-width:0.75"
         xml:space="preserve"><tspan
           style="font-size:25px;stroke-width:0.75"
           y="17.019993"
           x="489.52765"
           id="tspan1151"
           sodipodi:role="line">Huawei</tspan></text>
<text
         transform="scale(1,-1)"
         id="text1321"
         y="-3.2419109"
         x="605.42572"
         style="font-style:normal;font-weight:normal;font-size:30px;line-height:1.25;font-family:sans-serif;letter-spacing:0px;word-spacing:0px;fill:#000000;fill-opacity:1;stroke:none;stroke-width:0.75"
         xml:space="preserve"><tspan
           id="tspan1323"
           style="font-size:25px;stroke-width:0.75"
           y="-3.2419109"
           x="605.42572"
           sodipodi:role="line">Xiaomi</tspan></text>
<text
         transform="scale(1,-1)"
         id="text1329"
         y="-59.164799"
         x="697.82001"
         style="font-style:normal;font-weight:normal;font-size:30px;line-height:1.25;font-family:sans-serif;letter-spacing:0px;word-spacing:0px;fill:#000000;fill-opacity:1;stroke:none;stroke-width:0.75"
         xml:space="preserve"><tspan
           style="font-size:25px;stroke-width:0.75"
           y="-59.164799"
           x="697.82001"
           id="tspan1327"
           sodipodi:role="line">LG</tspan></text>
<text
         transform="scale(1,-1)"
         id="text1333"
         y="-111.84573"
         x="735.10193"
         style="font-style:normal;font-weight:normal;font-size:30px;line-height:1.25;font-family:sans-serif;letter-spacing:0px;word-spacing:0px;fill:#000000;fill-opacity:1;stroke:none;stroke-width:0.75"
         xml:space="preserve"><tspan
           style="font-size:25px;stroke-width:0.75"
           y="-111.84573"
           x="735.10193"
           id="tspan1331"
           sodipodi:role="line">Motorola</tspan></text>
<text
         transform="scale(1,-1)"
         id="text1337"
         y="-176.68382"
         x="769.14191"
         style="font-style:normal;font-weight:normal;font-size:30px;line-height:1.25;font-family:sans-serif;letter-spacing:0px;word-spacing:0px;fill:#000000;fill-opacity:1;stroke:none;stroke-width:0.75"
         xml:space="preserve"><tspan
           style="font-size:25px;stroke-width:0.75"
           y="-176.68382"
           x="769.14191"
           id="tspan1335"
           sodipodi:role="line">Oppo</tspan></text>
<text
         transform="scale(1,-1)"
         id="text1341"
         y="-230.98572"
         x="781.29907"
         style="font-style:normal;font-weight:normal;font-size:30px;line-height:1.25;font-family:sans-serif;letter-spacing:0px;word-spacing:0px;fill:#000000;fill-opacity:1;stroke:none;stroke-width:0.75"
         xml:space="preserve"><tspan
           style="font-size:25px;stroke-width:0.75"
           y="-230.98572"
           x="781.29907"
           id="tspan1339"
           sodipodi:role="line">Lenovo</tspan></text>
<text
         transform="scale(1,-1)"
         id="text1345"
         y="-281.23523"
         x="783.73047"
         style="font-style:normal;font-weight:normal;font-size:30px;line-height:1.25;font-family:sans-serif;letter-spacing:0px;word-spacing:0px;fill:#000000;fill-opacity:1;stroke:none;stroke-width:0.75"
         xml:space="preserve"><tspan
           style="font-size:25px;stroke-width:0.75"
           y="-281.23523"
           x="783.73047"
           id="tspan1343"
           sodipodi:role="line">Sony</tspan></text>
<text
         transform="scale(1,-1)"
         id="text1349"
         y="-316.89621"
         x="776.43622"
         style="font-style:normal;font-weight:normal;font-size:30px;line-height:1.25;font-family:sans-serif;letter-spacing:0px;word-spacing:0px;fill:#000000;fill-opacity:1;stroke:none;stroke-width:0.75"
         xml:space="preserve"><tspan
           style="font-size:25px;stroke-width:0.75"
           y="-316.89621"
           x="776.43622"
           id="tspan1347"
           sodipodi:role="line">Vivo</tspan></text>
<text
         transform="scale(1,-1)"
         id="text1353"
         y="-427.93143"
         x="757.79523"
         style="font-style:normal;font-weight:normal;font-size:30px;line-height:1.25;font-family:sans-serif;letter-spacing:0px;word-spacing:0px;fill:#000000;fill-opacity:1;stroke:none;stroke-width:0.75"
         xml:space="preserve"><tspan
           style="font-size:25px;stroke-width:0.75"
           y="-427.93143"
           x="757.79523"
           id="tspan1351"
           sodipodi:role="line">Autres</tspan></text>
<text
         transform="scale(1,-1)"
         id="text1357"
         y="-380.11334"
         x="530.86188"
         style="font-style:normal;font-weight:normal;font-size:30px;line-height:1.25;font-family:sans-serif;letter-spacing:0px;word-spacing:0px;fill:#000000;fill-opacity:1;stroke:none;stroke-width:0.75"
         xml:space="preserve"><tspan
           style="fill:#ffffff;fill-opacity:1;stroke-width:0.75"
           y="-380.11334"
           x="530.86188"
           id="tspan1355"
           sodipodi:role="line">iOS</tspan></text>
<text
         transform="scale(1,-1)"
         id="text1361"
         y="-146.6962"
         x="431.98383"
         style="font-style:normal;font-weight:normal;font-size:30px;line-height:1.25;font-family:sans-serif;letter-spacing:0px;word-spacing:0px;fill:#000000;fill-opacity:1;stroke:none;stroke-width:0.75"
         xml:space="preserve"><tspan
           style="fill:#ffffff;fill-opacity:1;stroke-width:0.75"
           y="-146.6962"
           x="431.98383"
           id="tspan1359"
           sodipodi:role="line">Android</tspan></text>
<text
         id="text1349-3"
         y="-506.87518"
         x="647.37671"
         style="font-style:normal;font-weight:normal;font-size:30px;line-height:1.25;font-family:sans-serif;letter-spacing:0px;word-spacing:0px;fill:#000000;fill-opacity:1;stroke:none;stroke-width:0.75"
         xml:space="preserve"
         transform="scale(1,-1)"><tspan
           style="font-size:25px;stroke-width:0.75"
           y="-506.87518"
           x="647.37671"
           id="tspan1347-6"
           sodipodi:role="line">Apple</tspan></text>
</g><flowRoot
       xml:space="preserve"
       id="flowRoot1363"
       style="font-style:normal;font-weight:normal;font-size:40px;line-height:1.25;font-family:sans-serif;letter-spacing:0px;word-spacing:0px;fill:#000000;fill-opacity:1;stroke:none"
       transform="matrix(0.75000002,0,0,-0.75000002,0,541.00001)"><flowRegion
         id="flowRegion1365"><rect
           id="rect1367"
           width="258.27173"
           height="571.65588"
           x="958.52319"
           y="115.09713" /></flowRegion><flowPara
         id="flowPara1369" /></flowRoot><flowRoot
       xml:space="preserve"
       id="flowRoot1371"
       style="font-style:normal;font-weight:normal;font-size:26.66666603px;line-height:1.25;font-family:sans-serif;letter-spacing:0px;word-spacing:0px;fill:#000000;fill-opacity:1;stroke:none"
       transform="matrix(0.75000002,0,0,-0.75000002,0,541.00001)"><flowRegion
         id="flowRegion1373"
         style="font-size:26.66666603px"><rect
           id="rect1375"
           width="273.40063"
           height="622.44568"
           x="932.58795"
           y="72.95237"
           style="font-size:26.66666603px" /></flowRegion><flowPara
         id="flowPara1377" /></flowRoot><path
       style="fill:none;stroke:#000000;stroke-width:2.25;stroke-linecap:butt;stroke-linejoin:miter;stroke-miterlimit:4;stroke-dasharray:none;stroke-opacity:1"
       d="m 769.77369,343.89267 -3.24191,73.75334"
       id="path1593"
       inkscape:connector-curvature="0"
       sodipodi:nodetypes="cc" /><path
       style="fill:none;stroke:#000000;stroke-width:2.25;stroke-linecap:butt;stroke-linejoin:miter;stroke-miterlimit:4;stroke-dasharray:none;stroke-opacity:1"
       d="m 751.13274,437.90791 -56.73333,33.22952"
       id="path1595"
       inkscape:connector-curvature="0" /><text
       xml:space="preserve"
       style="font-style:normal;font-variant:normal;font-weight:normal;font-stretch:normal;font-size:30px;line-height:1.25;font-family:sans-serif;-inkscape-font-specification:sans-serif;letter-spacing:0px;word-spacing:0px;fill:#000000;fill-opacity:1;stroke:none;stroke-width:0.75"
       x="164.49319"
       y="-49.689789"
       id="text1599"
       transform="scale(1,-1)"><tspan
         sodipodi:role="line"
         id="tspan1597"
         x="164.49319"
         y="-23.14682"
         style="font-style:normal;font-variant:normal;font-weight:normal;font-stretch:normal;font-size:20px;font-family:sans-serif;-inkscape-font-specification:sans-serif;text-align:start;text-anchor:start;fill:#7a7a7a;fill-opacity:1;stroke-width:0.75" /><tspan
         sodipodi:role="line"
         x="164.49319"
         y="14.35318"
         style="font-style:normal;font-variant:normal;font-weight:normal;font-stretch:normal;font-size:15.00000038px;font-family:sans-serif;-inkscape-font-specification:sans-serif;text-align:start;text-anchor:start;fill:#7a7a7a;fill-opacity:1;stroke-width:0.75"
         id="tspan1603">Gartner &amp; AppBrain, Q2 2017</tspan></text>
<text
       xml:space="preserve"
       style="font-style:normal;font-weight:normal;font-size:30px;line-height:1.25;font-family:sans-serif;letter-spacing:0px;word-spacing:0px;fill:#000000;fill-opacity:1;stroke:none;stroke-width:0.75"
       x="475.82291"
       y="-198.48856"
       id="text1609"
       transform="scale(1,-1)"><tspan
         sodipodi:role="line"
         id="tspan1607"
         x="475.82291"
         y="-198.48856"
         style="font-size:20px;stroke-width:0.75">87.7%</tspan></text>
<text
       xml:space="preserve"
       style="font-style:normal;font-weight:normal;font-size:30px;line-height:1.25;font-family:sans-serif;letter-spacing:0px;word-spacing:0px;fill:#000000;fill-opacity:1;stroke:none;stroke-width:0.75"
       x="499.32672"
       y="-324.92288"
       id="text1613"
       transform="scale(1,-1)"><tspan
         sodipodi:role="line"
         id="tspan1611"
         x="499.32672"
         y="-324.92288"
         style="font-size:20px;stroke-width:0.75">12.1%</tspan></text>
</g></svg>